Big Data in R
…
[1] "arrow_dplyr_query"

Bring results into memory

collect() will bring the results of the Arrow query into memory as a tibble.

seattle_checkouts |> 
  group_by(CheckoutYear) |> 
  summarize(Checkouts = sum(Checkouts)) |> 
  arrange(desc(CheckoutYear)) |> 
  collect()

# A tibble: 21 × 2
   CheckoutYear Checkouts
          <int>     <int>
 1         2025    826116
 2         2024   7340247
 3         2023   9197232
 4         2022   8402376
 5         2021   7361031
 6         2020   6053717
 7         2019   9199083
 8         2018   9149176
 9         2017   9231648
10         2016   9021051
# ℹ 11 more rows
…
